…
### Usage

#### Exploit the information

##### Get package metadata

Find the dependencies the first versions of ‘ggplot2’ had and when each
of these versions was released?

``` r
pkgsearch::cran_package_history("ggplot2")
```

    ## # A tibble: 36 x 28
    ##    Package Type  Title Version Date  Author Maintainer Description License
    ##  * <chr>   <chr> <chr> <chr>   <chr> <chr>  <chr>      <chr>       <chr>  
    ##  1 ggplot2 Pack~ An i~ 0.5     2007~ Hadle~ Hadley Wi~ "An implem~ GPL    
    ##  2 ggplot2 Pack~ An i~ 0.5.1   2007~ Hadle~ Hadley Wi~ "An implem~ GPL    
    ##  3 ggplot2 Pack~ An i~ 0.5.2   2007~ Hadle~ Hadley Wi~ "An implem~ GPL    
    ##  4 ggplot2 Pack~ An i~ 0.5.4   2007~ Hadle~ Hadley Wi~ "An implem~ GPL    
    ##  5 ggplot2 Pack~ An i~ 0.5.5   2007~ Hadle~ Hadley Wi~ "An implem~ GPL    
    ##  6 ggplot2 Pack~ An i~ 0.5.6   2007~ Hadle~ Hadley Wi~ An impleme~ GPL    
    ##  7 ggplot2 Pack~ An i~ 0.5.7   2007~ Hadle~ Hadley Wi~ An impleme~ GPL    
    ##  8 ggplot2 Pack~ An i~ 0.6     2008~ Hadle~ Hadley Wi~ An impleme~ GPL    
    ##  9 ggplot2 Pack~ An i~ 0.7     2008~ Hadle~ Hadley Wi~ An impleme~ GPL    
    ## 10 ggplot2 Pack~ An i~ 0.8     2008~ Hadle~ Hadley Wi~ An impleme~ GPL    
    ## # ... with 26 more rows, and 19 more variables: SaveImage <chr>,
    ## #   LazyData <chr>, Packaged <chr>, crandb_file_date <chr>, date <chr>,
    ## #   dependencies <list>, URL <chr>, LazyLoad <chr>, Extends <chr>,
    ## #   Collate <chr>, Repository <chr>, `Date/Publication` <chr>,
    ## #   NeedsCompilation <chr>, VignetteBuilder <chr>, BugReports <chr>,
    ## #   `Authors@R` <chr>, RoxygenNote <chr>, Encoding <chr>, MD5sum <chr>

  - pkgsearch can also provide the information related to the ‘hot’
    packages these days.

<!-- end list -->

``` r
pkgsearch::cran_trending()
```

    ## # A tibble: 100 x 2
    ##    package           score                
    ##    <chr>             <chr>                
    ##  1 clustree          1150.0904159132007200
    ##  2 effectsize        1100.5149330587023700
    ##  3 leaflet.providers 983.3006664053312400 
    ##  4 rbvs              964.2078255291853800 
    ##  5 cluster.datasets  936.6982800192895000 
    ##  6 farver            895.3473717376463800 
    ##  7 fuzzyforest       742.9122468659595000 
    ##  8 LambertW          717.0532060027285100 
    ##  9 bestNormalize     664.1789315100243400 
    ## 10 renv              648.5709395858292000 
    ## # ... with 90 more rows

  - Top downloaded packages

<!-- end list -->

``` r
cran_top_downloaded()
```

    ## # A tibble: 100 x 2
    ##    package         count 
    ##    <chr>           <chr> 
    ##  1 magrittr        931782
    ##  2 aws.s3          804873
    ##  3 aws.ec2metadata 796623
    ##  4 rsconnect       772741
    ##  5 rlang           348759
    ##  6 dplyr           289965
    ##  7 ggplot2         256456
    ##  8 Rcpp            244465
    ##  9 ellipsis        239129
    ## 10 vctrs           220421
    ## # ... with 90 more rows
…
